[
  {
    "gender": "male",
    "name": {
      "title": "mr",
      "first": "aiden",
      "last": "lucas"
    },
    "location": {
      "street": "1446 oak lawn ave",
      "city": "lakewood",
      "state": "arizona",
      "postcode": 60649
    },
    "email": "aiden.lucas@example.com",
    "login": {
      "username": "smallostrich903",
      "password": "kristine",
      "salt": "r5u9JFIh",
      "md5": "0e2f37c4b8baafacd62562857e9ecda5",
      "sha1": "e39a1487902ecc6d54287080c26794504348a4de",
      "sha256": "96220812c203891d9e7fc287e5fa73275ac8159d277ea088b051e80ec43abc99"
    },
    "registered": 1056249168,
    "dob": 1216516975,
    "phone": "(661)-131-8187",
    "cell": "(408)-707-4720",
    "id": {
      "name": "SSN",
      "value": "294-55-59099"
    },
    "picture": {
      "large": "https://randomuser.me/api/portraits/men/4.jpg",
      "medium": "https://randomuser.me/api/portraits/med/men/4.jpg",
      "thumbnail": "https://randomuser.me/api/portraits/thumb/men/4.jpg"
    },
    "dept": "Developer"
  },
  {
    "gender": "male",
    "name": {
      "title": "mr",
      "first": "mario",
      "last": "walters"
    },
    "location": {
      "street": "8467 preston rd",
      "city": "allentown",
      "state": "maine",
      "postcode": 71108
    },
    "email": "mario.walters@example.com",
    "login": {
      "username": "tinyrabbit750",
      "password": "detroit",
      "salt": "KQ9v0DxF",
      "md5": "720e03bf546c0e0d52c19cfb395bcb7b",
      "sha1": "7e01f165e1da1bf643a2a990f3e07a31239712cb",
      "sha256": "107e1e74180163911ffd09bbb40654e1ccafdcb9f7ed049c5f99b2a2491af631"
    },
    "registered": 1011808304,
    "dob": 381810389,
    "phone": "(612)-481-1846",
    "cell": "(213)-966-9760",
    "id": {
      "name": "SSN",
      "value": "501-03-3665"
    },
    "picture": {
      "large": "https://randomuser.me/api/portraits/men/47.jpg",
      "medium": "https://randomuser.me/api/portraits/med/men/47.jpg",
      "thumbnail": "https://randomuser.me/api/portraits/thumb/men/47.jpg"
    },
    "dept": "Developer"
  },
  {
    "gender": "male",
    "name": {
      "title": "mr",
      "first": "joseph",
      "last": "lambert"
    },
    "location": {
      "street": "2673 w pecan st",
      "city": "surrey",
      "state": "new hampshire",
      "postcode": 12183
    },
    "email": "joseph.lambert@example.com",
    "login": {
      "username": "silverbear726",
      "password": "jjjj",
      "salt": "8vuMdl2K",
      "md5": "a6c1d76d8ff9ef77c6d8b5731add9b23",
      "sha1": "f74df6018024f6ddd78ddb9c3b16da6059b4862b",
      "sha256": "2f2d0ade032e8ff8d9cba2b3355903a307ce0770c6d8668e0b99b0864cfdde79"
    },
    "registered": 950430259,
    "dob": 1070529775,
    "phone": "(481)-952-7376",
    "cell": "(249)-044-4521",
    "id": {
      "name": "SSN",
      "value": "842-08-3121"
    },
    "picture": {
      "large": "https://randomuser.me/api/portraits/men/13.jpg",
      "medium": "https://randomuser.me/api/portraits/med/men/13.jpg",
      "thumbnail": "https://randomuser.me/api/portraits/thumb/men/13.jpg"
    },
    "dept": "Marketing"
  },
  {
    "gender": "female",
    "name": {
      "title": "ms",
      "first": "tina",
      "last": "jennings"
    },
    "location": {
      "street": "1123 blossom hill rd",
      "city": "orange",
      "state": "nebraska",
      "postcode": 57791
    },
    "email": "tina.jennings@example.com",
    "login": {
      "username": "blackfish147",
      "password": "redsox1",
      "salt": "jtyqAijG",
      "md5": "1522a6658018c094c783ffeebd883392",
      "sha1": "fb31a98536ce48a38c4f9061e7a660cdce02b58a",
      "sha256": "c4035df9680ccffb460c97b1a0038c64eaf8740131c84916ed2ccd0ddab94f27"
    },
    "registered": 1262864619,
    "dob": 697657761,
    "phone": "(938)-316-5866",
    "cell": "(524)-445-7740",
    "id": {
      "name": "SSN",
      "value": "657-93-8860"
    },
    "picture": {
      "large": "https://randomuser.me/api/portraits/women/22.jpg",
      "medium": "https://randomuser.me/api/portraits/med/women/22.jpg",
      "thumbnail": "https://randomuser.me/api/portraits/thumb/women/22.jpg"
    },
    "dept": "Sales"
  },
  {
    "gender": "female",
    "name": {
      "title": "miss",
      "first": "irma",
      "last": "gibson"
    },
    "location": {
      "street": "9233 karen dr",
      "city": "elk grove",
      "state": "washington",
      "postcode": 93917
    },
    "email": "irma.gibson@example.com",
    "login": {
      "username": "crazyostrich373",
      "password": "snapon",
      "salt": "9wO9IWid",
      "md5": "0dd18c4c0b857733a74ae763697f953a",
      "sha1": "df1c6b03d26a5cb685bff8e3a1aa6ac9fb6a2428",
      "sha256": "c0e5001a3cbf7a4eca566ae2b5c1dffb5922145f2d2e9c571128aad7c68cddef"
    },
    "registered": 1255834240,
    "dob": 1190972313,
    "phone": "(355)-604-7804",
    "cell": "(190)-158-3107",
    "id": {
      "name": "SSN",
      "value": "452-39-7067"
    },
    "picture": {
      "large": "https://randomuser.me/api/portraits/women/53.jpg",
      "medium": "https://randomuser.me/api/portraits/med/women/53.jpg",
      "thumbnail": "https://randomuser.me/api/portraits/thumb/women/53.jpg"
    },
    "dept": "QA"
  },
  {
    "gender": "male",
    "name": {
      "title": "mr",
      "first": "lloyd",
      "last": "barnett"
    },
    "location": {
      "street": "6462 james st",
      "city": "hayward",
      "state": "oklahoma",
      "postcode": 33461
    },
    "email": "lloyd.barnett@example.com",
    "login": {
      "username": "heavyrabbit767",
      "password": "mmmmmmm",
      "salt": "Z7aNGEtH",
      "md5": "a486ea2fe2c7c1b8eeb0edc725b3944c",
      "sha1": "a445fb7f505a503ef7b6268734906e83aa98f871",
      "sha256": "bae85883e9914a5d12b5916f8ba41eec0b30220c1493a7807d4694738b5e0844"
    },
    "registered": 970895622,
    "dob": 370646603,
    "phone": "(065)-649-9739",
    "cell": "(268)-198-8917",
    "id": {
      "name": "SSN",
      "value": "211-86-9164"
    },
    "picture": {
      "large": "https://randomuser.me/api/portraits/men/19.jpg",
      "medium": "https://randomuser.me/api/portraits/med/men/19.jpg",
      "thumbnail": "https://randomuser.me/api/portraits/thumb/men/19.jpg"
    },
    "dept": "Business"
  },
  {
    "gender": "female",
    "name": {
      "title": "mrs",
      "first": "katherine",
      "last": "kennedy"
    },
    "location": {
      "street": "1879 lakeview st",
      "city": "tulsa",
      "state": "arkansas",
      "postcode": 70641
    },
    "email": "katherine.kennedy@example.com",
    "login": {
      "username": "tinyelephant958",
      "password": "blueeyes",
      "salt": "3vwj4Gqs",
      "md5": "59391393f7edf5281b8bab0358ca1517",
      "sha1": "9af56673c02fb24173a63422903661ece811adc5",
      "sha256": "5bff5cfef41d82da78a8c43c9494489f0942d1833d9166cfd436a55fcc430f7d"
    },
    "registered": 1145107738,
    "dob": 1252649057,
    "phone": "(471)-835-0973",
    "cell": "(531)-658-2168",
    "id": {
      "name": "SSN",
      "value": "461-54-5332"
    },
    "picture": {
      "large": "https://randomuser.me/api/portraits/women/30.jpg",
      "medium": "https://randomuser.me/api/portraits/med/women/30.jpg",
      "thumbnail": "https://randomuser.me/api/portraits/thumb/women/30.jpg"
    },
    "dept": "Developer"
  },
  {
    "gender": "male",
    "name": {
      "title": "mr",
      "first": "derek",
      "last": "cooper"
    },
    "location": {
      "street": "6380 harrison ct",
      "city": "minneapolis",
      "state": "south dakota",
      "postcode": 75232
    },
    "email": "derek.cooper@example.com",
    "login": {
      "username": "whitefrog184",
      "password": "vette",
      "salt": "Pf99Odqc",
      "md5": "70cfde16b8f583091d0de8f1546f8606",
      "sha1": "9b2f3de939d88d817a159ce7c4da948a485c98b2",
      "sha256": "69f8a058e4d3f0cdcc7c6dcaaaaf89ff8d3a162cdcb5bc3c65ed65d75277ad91"
    },
    "registered": 1384279978,
    "dob": 425185719,
    "phone": "(031)-916-8541",
    "cell": "(433)-262-4816",
    "id": {
      "name": "SSN",
      "value": "761-82-1515"
    },
    "picture": {
      "large": "https://randomuser.me/api/portraits/men/95.jpg",
      "medium": "https://randomuser.me/api/portraits/med/men/95.jpg",
      "thumbnail": "https://randomuser.me/api/portraits/thumb/men/95.jpg"
    },
    "dept": "Developer"
  },
  {
    "gender": "female",
    "name": {
      "title": "mrs",
      "first": "janice",
      "last": "holt"
    },
    "location": {
      "street": "5555 ranchview dr",
      "city": "st. louis",
      "state": "maine",
      "postcode": 37161
    },
    "email": "janice.holt@example.com",
    "login": {
      "username": "organicduck558",
      "password": "woodstoc",
      "salt": "XRjRNmiH",
      "md5": "c6c1c21db56cf98255c49df6f52df026",
      "sha1": "b04d4de05d42eacaa18eebbde5aa252d686f3ede",
      "sha256": "e36b9a74476ba9571fa65db248141a40b8d1169df676739dff07410e2a7aea0e"
    },
    "registered": 1406498452,
    "dob": 401945810,
    "phone": "(716)-024-9926",
    "cell": "(749)-373-8195",
    "id": {
      "name": "SSN",
      "value": "536-02-8640"
    },
    "picture": {
      "large": "https://randomuser.me/api/portraits/women/36.jpg",
      "medium": "https://randomuser.me/api/portraits/med/women/36.jpg",
      "thumbnail": "https://randomuser.me/api/portraits/thumb/women/36.jpg"
    },
    "dept": "Business"
  },
  {
    "gender": "male",
    "name": {
      "title": "mr",
      "first": "jeremiah",
      "last": "gutierrez"
    },
    "location": {
      "street": "7088 valley view ln",
      "city": "oceanside",
      "state": "maine",
      "postcode": 10450
    },
    "email": "jeremiah.gutierrez@example.com",
    "login": {
      "username": "lazywolf912",
      "password": "torpedo",
      "salt": "sGa8US6t",
      "md5": "4a28eb68ca1f0e8e086e9343a475d53e",
      "sha1": "2325a0a136560f1030d043ca9aad96f3c7eea8a1",
      "sha256": "8380013e74d6c8f4f7634d16b8c06d2b0c73d7085dc14acb073d6cd767328f89"
    },
    "registered": 1150308598,
    "dob": 36376654,
    "phone": "(078)-774-0897",
    "cell": "(510)-485-6020",
    "id": {
      "name": "SSN",
      "value": "900-63-7428"
    },
    "picture": {
      "large": "https://randomuser.me/api/portraits/men/37.jpg",
      "medium": "https://randomuser.me/api/portraits/med/men/37.jpg",
      "thumbnail": "https://randomuser.me/api/portraits/thumb/men/37.jpg"
    },
    "dept": "Developer"
  },
  {
    "gender": "male",
    "name": {
      "title": "mr",
      "first": "justin",
      "last": "sanchez"
    },
    "location": {
      "street": "2875 hamilton ave",
      "city": "olathe",
      "state": "oregon",
      "postcode": 72529
    },
    "email": "justin.sanchez@example.com",
    "login": {
      "username": "whitebear233",
      "password": "keegan",
      "salt": "1op5oklx",
      "md5": "e1f7cf7f7dafc6e9ee954e9b6dfef1b5",
      "sha1": "79a97f0597f8ba906a1f646d591ff6c1f2529192",
      "sha256": "17c7dfdfec01d6d38e390cfb364c0879bb3b39914060db6c1668660aa7ccef19"
    },
    "registered": 1186731503,
    "dob": 1070636260,
    "phone": "(574)-169-6696",
    "cell": "(403)-561-2817",
    "id": {
      "name": "SSN",
      "value": "057-05-3274"
    },
    "picture": {
      "large": "https://randomuser.me/api/portraits/men/38.jpg",
      "medium": "https://randomuser.me/api/portraits/med/men/38.jpg",
      "thumbnail": "https://randomuser.me/api/portraits/thumb/men/38.jpg"
    },
    "dept": "Developer"
  },
  {
    "gender": "female",
    "name": {
      "title": "miss",
      "first": "beverly",
      "last": "terry"
    },
    "location": {
      "street": "9800 shady ln dr",
      "city": "denver",
      "state": "mississippi",
      "postcode": 13993
    },
    "email": "beverly.terry@example.com",
    "login": {
      "username": "greenrabbit648",
      "password": "felicia",
      "salt": "Hr7czV4I",
      "md5": "f96456c40c37db66c1f043bbd95de2ca",
      "sha1": "d202e98483a424efb897a8ed1adfda563203ac9f",
      "sha256": "c06e5096f896dd7cfe261b7a9c13b9bc75f75f89780520de941e340d5d073fc2"
    },
    "registered": 1327258968,
    "dob": 588722089,
    "phone": "(995)-921-6616",
    "cell": "(126)-045-7458",
    "id": {
      "name": "SSN",
      "value": "510-32-3580"
    },
    "picture": {
      "large": "https://randomuser.me/api/portraits/women/48.jpg",
      "medium": "https://randomuser.me/api/portraits/med/women/48.jpg",
      "thumbnail": "https://randomuser.me/api/portraits/thumb/women/48.jpg"
    },
    "dept": "Business"
  },
  {
    "gender": "male",
    "name": {
      "title": "mr",
      "first": "dave",
      "last": "jenkins"
    },
    "location": {
      "street": "1512 mcclellan rd",
      "city": "albany",
      "state": "kentucky",
      "postcode": 33715
    },
    "email": "dave.jenkins@example.com",
    "login": {
      "username": "organicleopard229",
      "password": "wicked",
      "salt": "jx4AqxbO",
      "md5": "6b69557326c7d3f6731d6ccaf82ad961",
      "sha1": "570c0ea0b93055d494797cd280c4c4edffc5e2c7",
      "sha256": "0c51bc0b352ef5e9fd288615b609720598987319de4428dcaf766f21de6fed78"
    },
    "registered": 1285000545,
    "dob": 1005178656,
    "phone": "(178)-197-4080",
    "cell": "(037)-979-9144",
    "id": {
      "name": "SSN",
      "value": "718-64-5207"
    },
    "picture": {
      "large": "https://randomuser.me/api/portraits/men/14.jpg",
      "medium": "https://randomuser.me/api/portraits/med/men/14.jpg",
      "thumbnail": "https://randomuser.me/api/portraits/thumb/men/14.jpg"
    },
    "dept": "Developer"
  },
  {
    "gender": "male",
    "name": {
      "title": "mr",
      "first": "joseph",
      "last": "douglas"
    },
    "location": {
      "street": "3801 walnut hill ln",
      "city": "fort wayne",
      "state": "minnesota",
      "postcode": 96348
    },
    "email": "joseph.douglas@example.com",
    "login": {
      "username": "blackmouse520",
      "password": "records",
      "salt": "vWgp29X1",
      "md5": "85c6113d7b00728d315f30f787d73230",
      "sha1": "31ffd5a18eb19453096791941f5272b23a663229",
      "sha256": "d7a969e0214616071b6a7514f108a4297963aedf383d80ecb385428e625e2a88"
    },
    "registered": 930447884,
    "dob": 1134738983,
    "phone": "(290)-432-3238",
    "cell": "(205)-458-7251",
    "id": {
      "name": "SSN",
      "value": "750-66-1330"
    },
    "picture": {
      "large": "https://randomuser.me/api/portraits/men/11.jpg",
      "medium": "https://randomuser.me/api/portraits/med/men/11.jpg",
      "thumbnail": "https://randomuser.me/api/portraits/thumb/men/11.jpg"
    },
    "dept": "Developer"
  },
  {
    "gender": "male",
    "name": {
      "title": "mr",
      "first": "ruben",
      "last": "tucker"
    },
    "location": {
      "street": "7986 hunters creek dr",
      "city": "long beach",
      "state": "mississippi",
      "postcode": 44336
    },
    "email": "ruben.tucker@example.com",
    "login": {
      "username": "lazyfrog353",
      "password": "5424",
      "salt": "POrqmSCr",
      "md5": "8cc33edc795c9f7e7272c9702e7757ce",
      "sha1": "a73ed5fa8aaeb737cd2ba397d9a67f48ab8f7bcf",
      "sha256": "48bfeae2393b0987718084db8ddb12551072b5bdcf1f3180a34dcc1e8a2b0fbf"
    },
    "registered": 1100676193,
    "dob": 214940982,
    "phone": "(351)-769-5360",
    "cell": "(537)-404-9809",
    "id": {
      "name": "SSN",
      "value": "346-47-0709"
    },
    "picture": {
      "large": "https://randomuser.me/api/portraits/men/24.jpg",
      "medium": "https://randomuser.me/api/portraits/med/men/24.jpg",
      "thumbnail": "https://randomuser.me/api/portraits/thumb/men/24.jpg"
    },
    "dept": "Business"
  },
  {
    "gender": "female",
    "name": {
      "title": "mrs",
      "first": "anne",
      "last": "moore"
    },
    "location": {
      "street": "2916 stevens creek blvd",
      "city": "north las vegas",
      "state": "virginia",
      "postcode": 10854
    },
    "email": "anne.moore@example.com",
    "login": {
      "username": "beautifulgorilla586",
      "password": "public",
      "salt": "wN8529pe",
      "md5": "5aa15557941de8ba260bd1f3c0ed808e",
      "sha1": "e399c0767981f803dd4ba3d86408ad7e55a86fe9",
      "sha256": "3cdbba281df321a77426f84f4687977dbb545c07c0e4b641717a47bf37c47454"
    },
    "registered": 1402839592,
    "dob": 80843039,
    "phone": "(399)-476-1792",
    "cell": "(407)-697-3420",
    "id": {
      "name": "SSN",
      "value": "883-72-2726"
    },
    "picture": {
      "large": "https://randomuser.me/api/portraits/women/83.jpg",
      "medium": "https://randomuser.me/api/portraits/med/women/83.jpg",
      "thumbnail": "https://randomuser.me/api/portraits/thumb/women/83.jpg"
    },
    "dept": "Developer"
  },
  {
    "gender": "male",
    "name": {
      "title": "mr",
      "first": "nathaniel",
      "last": "barnes"
    },
    "location": {
      "street": "2542 depaul dr",
      "city": "princeton",
      "state": "colorado",
      "postcode": 81197
    },
    "email": "nathaniel.barnes@example.com",
    "login": {
      "username": "brownduck480",
      "password": "highbury",
      "salt": "hSUlstpX",
      "md5": "ef95e9f215c2b3546cdfe03082e42aec",
      "sha1": "39ffba8d7c72de8edd27929d33472c10258af6c7",
      "sha256": "3ec86e6ff782daa36b1e2554c8806bed25d7f1d4bbb6a500a75c4c39e5974436"
    },
    "registered": 1146147764,
    "dob": 1156032378,
    "phone": "(662)-402-0376",
    "cell": "(936)-973-8330",
    "id": {
      "name": "SSN",
      "value": "690-49-6124"
    },
    "picture": {
      "large": "https://randomuser.me/api/portraits/men/82.jpg",
      "medium": "https://randomuser.me/api/portraits/med/men/82.jpg",
      "thumbnail": "https://randomuser.me/api/portraits/thumb/men/82.jpg"
    },
    "dept": "Developer"
  },
  {
    "gender": "female",
    "name": {
      "title": "mrs",
      "first": "krin",
      "last": "carpenter"
    },
    "location": {
      "street": "8491 e pecan st",
      "city": "billings",
      "state": "new mexico",
      "postcode": 48593
    },
    "email": "krin.carpenter@example.com",
    "login": {
      "username": "blacksnake724",
      "password": "pinhead",
      "salt": "1agrOFjZ",
      "md5": "c5de3ce3d33e75c871981b003dcb3b8d",
      "sha1": "e8585804aa6a2e856ea0684f1ed0e0da3cda75ea",
      "sha256": "551a23bc198dfa838b876f94b6a8f83d0cfd44910d4ebe44434909769b83343d"
    },
    "registered": 1123861729,
    "dob": 277871669,
    "phone": "(083)-460-4070",
    "cell": "(276)-269-2614",
    "id": {
      "name": "SSN",
      "value": "570-95-4931"
    },
    "picture": {
      "large": "https://randomuser.me/api/portraits/women/92.jpg",
      "medium": "https://randomuser.me/api/portraits/med/women/92.jpg",
      "thumbnail": "https://randomuser.me/api/portraits/thumb/women/92.jpg"
    },
    "dept": "Developer"
  },
  {
    "gender": "female",
    "name": {
      "title": "miss",
      "first": "juanita",
      "last": "garrett"
    },
    "location": {
      "street": "1689 valwood pkwy",
      "city": "lubbock",
      "state": "south carolina",
      "postcode": 44304
    },
    "email": "juanita.garrett@example.com",
    "login": {
      "username": "ticklishsnake612",
      "password": "life",
      "salt": "SX2kqZU0",
      "md5": "66a3fc18e5297f2b21a9c82693b9d1e9",
      "sha1": "52c2560cb10f11ba9a87c968f2a5da63ffc413fe",
      "sha256": "bcc3b93ff4823121091ee67241d283211a93de89542c79f6719766424dea2742"
    },
    "registered": 1301328480,
    "dob": 861784761,
    "phone": "(533)-364-2019",
    "cell": "(316)-204-0325",
    "id": {
      "name": "SSN",
      "value": "120-82-8081"
    },
    "picture": {
      "large": "https://randomuser.me/api/portraits/women/80.jpg",
      "medium": "https://randomuser.me/api/portraits/med/women/80.jpg",
      "thumbnail": "https://randomuser.me/api/portraits/thumb/women/80.jpg"
    },
    "dept": "Developer"
  },
  {
    "gender": "male",
    "name": {
      "title": "mr",
      "first": "dustin",
      "last": "matthews"
    },
    "location": {
      "street": "7071 samaritan dr",
      "city": "houston",
      "state": "connecticut",
      "postcode": 49530
    },
    "email": "dustin.matthews@example.com",
    "login": {
      "username": "bluefish688",
      "password": "noodles",
      "salt": "fK4qeZ0T",
      "md5": "98e41ab72ceccec70a8301c402a5d605",
      "sha1": "77cbaf3287506796f571ab1c8a437360e7c0fb31",
      "sha256": "62f1746e84ece9e9e6b73882d5cca6f3ec1c01ba9f25f40e5550805170d01a92"
    },
    "registered": 1347218543,
    "dob": 58569139,
    "phone": "(403)-348-7234",
    "cell": "(427)-975-4246",
    "id": {
      "name": "SSN",
      "value": "311-62-2533"
    },
    "picture": {
      "large": "https://randomuser.me/api/portraits/men/58.jpg",
      "medium": "https://randomuser.me/api/portraits/med/men/58.jpg",
      "thumbnail": "https://randomuser.me/api/portraits/thumb/men/58.jpg"
    },
    "dept": "Developer"
  },
  {
    "gender": "female",
    "name": {
      "title": "miss",
      "first": "rose",
      "last": "flores"
    },
    "location": {
      "street": "3173 homestead rd",
      "city": "baltimore",
      "state": "georgia",
      "postcode": 20769
    },
    "email": "rose.flores@example.com",
    "login": {
      "username": "goldenostrich676",
      "password": "sadie1",
      "salt": "UQQdmiuO",
      "md5": "ef9aa15415fb23ed7fedee98ef347427",
      "sha1": "8d8ebd7a646486c82b505e86ac39ddd2312dc65f",
      "sha256": "f467d883956991e29408e0af763ce82111bcaec00119859677174be322240c2b"
    },
    "registered": 1262789861,
    "dob": 510894076,
    "phone": "(366)-793-1403",
    "cell": "(855)-146-4196",
    "id": {
      "name": "SSN",
      "value": "413-35-1377"
    },
    "picture": {
      "large": "https://randomuser.me/api/portraits/women/2.jpg",
      "medium": "https://randomuser.me/api/portraits/med/women/2.jpg",
      "thumbnail": "https://randomuser.me/api/portraits/thumb/women/2.jpg"
    },
    "dept": "Developer"
  },
  {
    "gender": "female",
    "name": {
      "title": "mrs",
      "first": "lois",
      "last": "ray"
    },
    "location": {
      "street": "8029 cherry st",
      "city": "portland",
      "state": "delaware",
      "postcode": 36733
    },
    "email": "lois.ray@example.com",
    "login": {
      "username": "ticklishelephant181",
      "password": "zhou",
      "salt": "4UBlkgmP",
      "md5": "20b4646a339a1b60c069e516466f778d",
      "sha1": "52bc0a4415aac93b1f8f889efccc2a18934bc18b",
      "sha256": "e25b7b46fb8c651635d404a1caf681d7d86b70b23b1e47b44414260346992932"
    },
    "registered": 1065295203,
    "dob": 1007329355,
    "phone": "(308)-529-8488",
    "cell": "(626)-685-8052",
    "id": {
      "name": "SSN",
      "value": "697-66-7210"
    },
    "picture": {
      "large": "https://randomuser.me/api/portraits/women/61.jpg",
      "medium": "https://randomuser.me/api/portraits/med/women/61.jpg",
      "thumbnail": "https://randomuser.me/api/portraits/thumb/women/61.jpg"
    },
    "dept": "Developer"
  },
  {
    "gender": "female",
    "name": {
      "title": "mrs",
      "first": "joann",
      "last": "james"
    },
    "location": {
      "street": "6280 depaul dr",
      "city": "the colony",
      "state": "maryland",
      "postcode": 92047
    },
    "email": "joann.james@example.com",
    "login": {
      "username": "orangepeacock239",
      "password": "riddle",
      "salt": "VuIEAgJ0",
      "md5": "38b8eedc54bcd7685211e6152d70a0af",
      "sha1": "6ee7dbc58a9429fcdfd14dc4779a54f5b880725c",
      "sha256": "7893321f41d17bd7b07e42260f4f1eb07f8dc06ffb5f5becda369817d062c942"
    },
    "registered": 1278663706,
    "dob": 1185467571,
    "phone": "(114)-431-3331",
    "cell": "(391)-121-0355",
    "id": {
      "name": "SSN",
      "value": "427-20-3252"
    },
    "picture": {
      "large": "https://randomuser.me/api/portraits/women/77.jpg",
      "medium": "https://randomuser.me/api/portraits/med/women/77.jpg",
      "thumbnail": "https://randomuser.me/api/portraits/thumb/women/77.jpg"
    },
    "dept": "Developer"
  },
  {
    "gender": "male",
    "name": {
      "title": "mr",
      "first": "jack",
      "last": "taylor"
    },
    "location": {
      "street": "3440 walnut hill ln",
      "city": "denton",
      "state": "iowa",
      "postcode": 45987
    },
    "email": "jack.taylor@example.com",
    "login": {
      "username": "purplepanda536",
      "password": "billabon",
      "salt": "90W8Atyi",
      "md5": "df9a36160dfeadcc72e1d257730d7d34",
      "sha1": "ad51964a2db2305317824c1a319adf42bcdcc874",
      "sha256": "c001d39829df71f567bf732b5bcdd55456837635f5c66a5bf214060f73f7106a"
    },
    "registered": 1351248698,
    "dob": 269415665,
    "phone": "(149)-641-1109",
    "cell": "(570)-719-2629",
    "id": {
      "name": "SSN",
      "value": "492-20-7099"
    },
    "picture": {
      "large": "https://randomuser.me/api/portraits/men/37.jpg",
      "medium": "https://randomuser.me/api/portraits/med/men/37.jpg",
      "thumbnail": "https://randomuser.me/api/portraits/thumb/men/37.jpg"
    },
    "dept": "Developer"
  },
  {
    "gender": "male",
    "name": {
      "title": "mr",
      "first": "shane",
      "last": "pena"
    },
    "location": {
      "street": "6140 stevens creek blvd",
      "city": "princeton",
      "state": "minnesota",
      "postcode": 70026
    },
    "email": "shane.pena@example.com",
    "login": {
      "username": "heavyduck759",
      "password": "wearing",
      "salt": "3SJ48nHC",
      "md5": "4fc3f8f7b5336fcb7ee71d0ea19ac909",
      "sha1": "42564a0ff61f3294ae5a956defc49dabb693c0d9",
      "sha256": "2813147541e009adcd851d1c31af6e93de0aaecea80e841b3be0b10c85999b8c"
    },
    "registered": 1078419079,
    "dob": 1334517462,
    "phone": "(936)-203-2629",
    "cell": "(937)-125-4250",
    "id": {
      "name": "SSN",
      "value": "863-44-8157"
    },
    "picture": {
      "large": "https://randomuser.me/api/portraits/men/89.jpg",
      "medium": "https://randomuser.me/api/portraits/med/men/89.jpg",
      "thumbnail": "https://randomuser.me/api/portraits/thumb/men/89.jpg"
    },
    "dept": "Developer"
  },
  {
    "gender": "female",
    "name": {
      "title": "ms",
      "first": "jamie",
      "last": "murphy"
    },
    "location": {
      "street": "2266 dogwood ave",
      "city": "milwaukee",
      "state": "illinois",
      "postcode": 53996
    },
    "email": "jamie.murphy@example.com",
    "login": {
      "username": "smallwolf457",
      "password": "andrew1",
      "salt": "8UNz8g7d",
      "md5": "6070d4864c984e8c2a3838ec2d71ae21",
      "sha1": "f3db8cac392528eec677f52b5d8ef01fb428bd37",
      "sha256": "d796bb193b61a64d42c54caa328a8bb447dae43a385a56d25811512246eb9a0b"
    },
    "registered": 982859055,
    "dob": 372492519,
    "phone": "(195)-919-1984",
    "cell": "(307)-463-5644",
    "id": {
      "name": "SSN",
      "value": "976-41-7836"
    },
    "picture": {
      "large": "https://randomuser.me/api/portraits/women/4.jpg",
      "medium": "https://randomuser.me/api/portraits/med/women/4.jpg",
      "thumbnail": "https://randomuser.me/api/portraits/thumb/women/4.jpg"
    },
    "dept": "Developer"
  },
  {
    "gender": "male",
    "name": {
      "title": "mr",
      "first": "jimmie",
      "last": "henderson"
    },
    "location": {
      "street": "3573 valwood pkwy",
      "city": "torrance",
      "state": "arkansas",
      "postcode": 40151
    },
    "email": "jimmie.henderson@example.com",
    "login": {
      "username": "ticklishlion658",
      "password": "sabres",
      "salt": "IkcmI92l",
      "md5": "2b893007a8203661c98ac17084986bc9",
      "sha1": "0fd45db14312daf96bf27a37842026ba143bd868",
      "sha256": "cdb95b13426a98dba18c2825ec53591f990bf87961451016a07e61250a93d677"
    },
    "registered": 1214711536,
    "dob": 1271698671,
    "phone": "(896)-038-9714",
    "cell": "(699)-848-6940",
    "id": {
      "name": "SSN",
      "value": "913-30-5693"
    },
    "picture": {
      "large": "https://randomuser.me/api/portraits/men/48.jpg",
      "medium": "https://randomuser.me/api/portraits/med/men/48.jpg",
      "thumbnail": "https://randomuser.me/api/portraits/thumb/men/48.jpg"
    },
    "dept": "Developer"
  },
  {
    "gender": "male",
    "name": {
      "title": "mr",
      "first": "douglas",
      "last": "vasquez"
    },
    "location": {
      "street": "7560 lakeshore rd",
      "city": "las vegas",
      "state": "hawaii",
      "postcode": 23129
    },
    "email": "douglas.vasquez@example.com",
    "login": {
      "username": "crazybird277",
      "password": "1977",
      "salt": "xaxnsBpA",
      "md5": "45ab762e47e06a5840ad11d4b34e90b3",
      "sha1": "1f91553c299bcbfb8ec4e7b44611d4ffd47d093b",
      "sha256": "75f323569952e575a3bbf1144d02844d111403f4a366c78f040510e9dee7481a"
    },
    "registered": 1220171436,
    "dob": 81267785,
    "phone": "(125)-713-6323",
    "cell": "(135)-133-1550",
    "id": {
      "name": "SSN",
      "value": "361-28-9407"
    },
    "picture": {
      "large": "https://randomuser.me/api/portraits/men/76.jpg",
      "medium": "https://randomuser.me/api/portraits/med/men/76.jpg",
      "thumbnail": "https://randomuser.me/api/portraits/thumb/men/76.jpg"
    },
    "dept": "Developer"
  },
  {
    "gender": "male",
    "name": {
      "title": "mr",
      "first": "steve",
      "last": "byrd"
    },
    "location": {
      "street": "6697 parker rd",
      "city": "sioux falls",
      "state": "pennsylvania",
      "postcode": 19872
    },
    "email": "steve.byrd@example.com",
    "login": {
      "username": "ticklishpanda490",
      "password": "fearless",
      "salt": "V0Y0Hux5",
      "md5": "5714aceb299d35da85a52849e8e4fb5b",
      "sha1": "949ca606429194086f6a2511fc59b98e45c818fe",
      "sha256": "1a86ad5ad7fd9851e5fd2a34886b69385534f82bb6da5b7fd8c7ceb204f5ef8f"
    },
    "registered": 1142734041,
    "dob": 591729878,
    "phone": "(440)-792-0146",
    "cell": "(767)-032-6051",
    "id": {
      "name": "SSN",
      "value": "936-70-6729"
    },
    "picture": {
      "large": "https://randomuser.me/api/portraits/men/30.jpg",
      "medium": "https://randomuser.me/api/portraits/med/men/30.jpg",
      "thumbnail": "https://randomuser.me/api/portraits/thumb/men/30.jpg"
    },
    "dept": "Developer"
  },
  {
    "gender": "female",
    "name": {
      "title": "mrs",
      "first": "catherine",
      "last": "moreno"
    },
    "location": {
      "street": "6976 james st",
      "city": "atlanta",
      "state": "connecticut",
      "postcode": 57317
    },
    "email": "catherine.moreno@example.com",
    "login": {
      "username": "blackdog275",
      "password": "midget",
      "salt": "6PP6bHG1",
      "md5": "d7cfc1dc09033b81a8c219667fae117d",
      "sha1": "6a5ad43ea27f98ac6a20311162655d599270d654",
      "sha256": "804020452caba886ca25b1dddba4fbc09fbf5e03a79934f046232f3149dca3f0"
    },
    "registered": 999032562,
    "dob": 947642579,
    "phone": "(077)-444-8938",
    "cell": "(229)-193-7244",
    "id": {
      "name": "SSN",
      "value": "779-17-7741"
    },
    "picture": {
      "large": "https://randomuser.me/api/portraits/women/55.jpg",
      "medium": "https://randomuser.me/api/portraits/med/women/55.jpg",
      "thumbnail": "https://randomuser.me/api/portraits/thumb/women/55.jpg"
    },
    "dept": "Developer"
  }
]